Getting Started - OutlierDetection.jl
…
Getting Started

This example demonstrates using the OutlierDetection API to determine the outlierness of instances in the Thyroid Disease Dataset, which is part of the ODDS collection. We use OutlierDetectionData.jl to load the dataset. 

Import MLJ, OutlierDetection and OutlierDetectionData.

using MLJ
using OutlierDetection
using OutlierDetectionData: ODDS

Load the "thyroid" dataset from the ODDS collection.

X, y = ODDS.load("thyroid")

(3772×6 DataFrame
  Row │ x1        x2           x3         x4        x5        x6
      │ Float64   Float64      Float64    Float64   Float64   Float64
──────┼────────────────────────────────────────────────────────────────
    1 │ 0.774194  0.00113208   0.137571   0.275701  0.295775  0.236066
    2 │ 0.247312  0.000471698  0.279886   0.329439  0.535211  0.17377
    3 │ 0.494624  0.00358491   0.22296    0.233645  0.525822  0.12459
    4 │ 0.677419  0.00169811   0.156546   0.175234  0.333333  0.136066
    5 │ 0.236559  0.000471698  0.241935   0.320093  0.333333  0.247541
    6 │ 0.731183  0.000471698  0.147059   0.196262  0.239437  0.198361
    7 │ 0.903226  0.000471698  0.213472   0.294393  0.399061  0.195082
    8 │ 0.505376  0.00392453   0.185009   0.196262  0.276995  0.177049
  ⋮   │    ⋮           ⋮           ⋮         ⋮         ⋮         ⋮
 3766 │ 0.763441  0.00943396   0.190702   0.231308  0.323944  0.185246
 3767 │ 0.688172  0.000886792  0.0711575  0.35514   0.262911  0.331148
 3768 │ 0.817204  0.000113208  0.190702   0.287383  0.413146  0.188525
 3769 │ 0.430108  0.00245283   0.232448   0.287383  0.446009  0.17541
 3770 │ 0.935484  0.0245283    0.160342   0.28271   0.375587  0.2
 3771 │ 0.677419  0.0014717    0.190702   0.242991  0.323944  0.195082
 3772 │ 0.483871  0.00356604   0.190702   0.212617  0.338028  0.163934
                                                      3757 rows omitted, CategoricalArrays.CategoricalValue{String, UInt32}["normal", "normal", "normal", "normal", "normal", "normal", "normal", "normal", "normal", "normal"  …  "normal", "normal", "normal", "normal", "normal", "normal", "normal", "normal", "normal", "normal"])
…
