Simple Usage - OutlierDetection.jl
…
We can now load a dataset by specifying its name.

X, y = ODDS.load("annthyroid")

(7200×6 DataFrame
  Row │ x1       x2       x3       x4       x5       x6
      │ Float64  Float64  Float64  Float64  Float64  Float64
──────┼──────────────────────────────────────────────────────
    1 │    0.73  0.0006    0.015   0.12       0.082  0.146
    2 │    0.24  0.00025   0.03    0.143      0.133  0.108
    3 │    0.47  0.0019    0.024   0.102      0.131  0.078
    4 │    0.64  0.0009    0.017   0.077      0.09   0.085
    5 │    0.23  0.00025   0.026   0.139      0.09   0.153
    6 │    0.69  0.00025   0.016   0.086      0.07   0.123
    7 │    0.85  0.00025   0.023   0.128      0.104  0.121
    8 │    0.48  0.00208   0.02    0.086      0.078  0.11
  ⋮   │    ⋮        ⋮        ⋮        ⋮        ⋮        ⋮
 7194 │    0.7   0.0009    0.015   0.104      0.095  0.109
 7195 │    0.79  0.0049    0.0201  0.077      0.082  0.094
 7196 │    0.59  0.0025    0.0208  0.079      0.099  0.08
 7197 │    0.51  0.106     0.006   0.005      0.089  0.0055
 7198 │    0.51  0.00076   0.0201  0.09       0.067  0.134
 7199 │    0.35  0.0028    0.0201  0.09       0.089  0.101
 7200 │    0.73  0.00056   0.0201  0.081      0.09   0.09
                                            7185 rows omitted, CategoricalArrays.CategoricalValue{String, UInt32}["normal", "normal", "normal", "normal", "normal", "normal", "normal", "normal", "normal", "normal"  …  "normal", "normal", "normal", "normal", "normal", "normal", "outlier", "normal", "normal", "normal"])
…
